…
``` r
flights <- nycflights13::flights
b <- transmute(flights,
    dep_time,
    dep_time_minutes = (dep_time %/% 100)*60 + (dep_time %% 100))
c <- transmute(flights,
    sched_dep_time,
    sched_dep_time_minutes = (sched_dep_time %/% 100)*60 + (sched_dep_time %% 100))
mutate(b, c)
```

    ## # A tibble: 336,776 x 4
    ##    dep_time dep_time_minutes sched_dep_time sched_dep_time_minutes
    ##       <int>            <dbl>          <int>                  <dbl>
    ##  1      517              317            515                    315
    ##  2      533              333            529                    329
    ##  3      542              342            540                    340
    ##  4      544              344            545                    345
    ##  5      554              354            600                    360
    ##  6      554              354            558                    358
    ##  7      555              355            600                    360
    ##  8      557              357            600                    360
    ##  9      557              357            600                    360
    ## 10      558              358            600                    360
    ## # … with 336,766 more rows
…
